0,1,2,3,4,5,6,7,8,9
10,11,12,13,16,14,15,17,18,19
20,21,22,28,23,24,25,26,27,29
30,31,32,39,33,34,35,36,37,38
40,41,42,43,44,51,45,46,47,48
49,50,52,53,54,55,56,57,62,58
59,60,61,63,64,65,66,67,68,69
70,71,74,72,73,75,76,77,78,79
80,81,82,83,84,86,85,87,88,89
90,91,92,93,94,95,96,97,98,99
100,101,102,103,104,105,106,107,108,110
109,111,112,113,114,115,116,117,118,119
120,121,122,123,124,125,126,127,128,129
130,131,132,133,134,135,136,137,138,139
140,141,142,143,144,145,146,147,148,149
150,151,152,153,154,155,157,158,159,156
160,161,162,163,164,165,166,168,169,170
167,171,172,173,174,175,176,177,178,180
181,182,179,183,184,185,186,187,188,189
190,192,193,194,191,195,196,197,198,199
200,201,203,204,205,202,206,207,208,209
210,211,212,213,215,216,217,214,218,219
220,221,222,223,224,226,227,228,225,229
230,231,232,233,234,235,236,238,239,237
240,241,242,243,244,245,246,247,248,250
251,249,252,253,254,255,256,257,258
