1329,1328,1138,1137,1327,1326,1325,1324,1323,1135,1136,1322,1321,1320,1319,1318,1317,1316,1315,1314
1313,1312,1311,1310,1134,1309,1308,1307,1306,1305,1304,1303,1302,1301,1300,1299,1298,1133,1297,1296
1295,1294,1132,1293,1292,1291,1131,1290,1289,1288,1287,1286,1285,1284,1283,1282,1281,1280,1279,1278
1277,1276,1130,1275,1274,1273,1129,1272,1271,1270,1128,1269,1268,1267,1266,1265,1264,1263,1262,1261
1260,1259,1258,1127,1257,1256,1255,1126,1254,1253,1252,1251,1250,1249,1248,1247,1246,1245,1125,1244
1242,1243,1241,1124,1240,1239,1123,1238,1237,1236,1122,1235,1234,1233,1232,1231,1230,1229,1228,1225
1227,1226,1121,1224,1223,1120,1222,1119,1221,1220,1219,1118,1218,1217,1216,1215,1214,1213,1212,1211
1117,1210,1209,1208,1207,1116,1206,1205,1204,1203,1202,1201,1114,1200,1115,1199,1198,1197,1196,1195
1194,1193,1113,1192,1191,1190,1112,1189,1188,1111,1187,1186,1185,1184,1183,1182,1181,1180,1179,1178
1177,1176,1175,1110,1174,1100,1173,1172,1171,1170,1099,1045,1044,1043,1042,1041,1040,1039,1038,1037
1036,1035,1034,1098,1033,1032,1031,1097,1030,1029,1028,1027,1026,1025,1024,1023,1022,1021,1020,1019
1018,1017,1096,1016,1015,1014,1013,1095,1012,1011,1010,1009,1008,1007,1006,1005,1004,1003,1002,1001
1000,999,1094,998,997,996,1093,995,994,1092,993,992,991,990,989,988,987,986,985,984
983,982,981,980,1091,979,978,977,976,975,974,973,972,971,970,969,968,967,966,965
964,1090,963,962,961,960,959,958,957,956,955,954,953,952,951,1089,950,949,948,947
946,945,944,1088,943,942,941,940,939,1087,938,937,936,935,934,933,932,931,930,929
928,927,926,925,1086,924,923,922,921,920,919,918,917,916,915,914,913,912,911,910
909,908,1085,907,906,905,904,903,902,901,1084,900,899,898,897,896,895,894,893,892
891,890,889,1083,888,887,886,885,884,883,882,881,880,879,878,877,876,875,874,873
872,871,870,869,868,867,1082,866,1081,865,864,863,862,861,860,859,858,857,856,855
854,853,852,851,850,849,1080,848,847,846,845,844,843,842,841,840,839,838,837,836
835,834,1079,833,832,831,830,829,828,1078,827,826,825,824,823,822,821,820,819,818
817,816,815,814,813,812,1077,811,810,809,808,807,806,805,804,803,802,801,800,799
798,797,1076,796,795,794,793,792,791,790,789,788,787,786,785,784,783,782,781,780
779,778,1075,777,776,1074,775,774,773,772,771,770,769,768,767,766,765,764,763,762
761,760,1073,759,758,1072,757,756,755,754,753,752,751,750,749,748,747,746,745,744
743,742,1071,741,740,739,738,1070,737,736,735,734,733,732,731,730,729,728,727,726
725,724,1069,723,722,1068,721,720,719,718,717,716,1067,715,714,713,712,711,710,709
708,707,1066,706,705,704,703,702,701,700,1065,699,698,697,696,695,694,693,692,691
690,689,1064,688,687,686,1063,685,684,683,682,681,680,1062,679,678,677,676,675,674
673,672,671,1061,670,669,668,1060,667,666,665,664,663,662,661,660,659,658,657,656
655,654,1059,653,652,651,1058,650,649,1057,648,647,646,645,644,643,642,641,640,639
638,637,636,1056,635,1055,596,634,633,632,631,594,621,620,595,619,618,617,593,616
615,592,614,613,612,590,611,591,610,608,609,607,580,606,549,579,548,547,546,545
544,543,578,542,541,540,539,577,538,537,536,535,534,533,532,531,530,529,528,527
526,525,524,576,523,522,521,520,519,518,517,516,515,514,513,512,511,510,509,508
507,506,575,505,574,504,503,502,501,500,499,498,497,496,495,494,493,492,491,490
489,488,487,486,485,484,573,483,482,481,480,479,478,477,476,572,475,474,473,472
471,470,469,468,571,467,466,465,464,463,462,461,460,459,458,457,456,455,454,453
452,451,570,450,449,448,569,447,446,445,444,443,442,441,440,439,438,437,436,435
568,434,433,567,432,431,430,429,566,428,427,426,425,424,423,422,421,420,419,418
417,415,565,414,416,413,412,411,410,409,564,408,407,406,405,404,403,402,401,400
399,398,563,397,396,395,394,562,393,392,391,390,389,388,387,386,385,384,383,382
381,380,379,378,561,377,376,375,374,373,372,371,370,560,369,368,367,366,365,364
363,362,361,559,360,359,343,358,357,356,355,354,353,326,325,324,323,322,321,320
319,318,317,342,316,315,314,313,341,312,311,310,309,340,308,307,306,305,304,303
302,301,300,299,339,298,297,296,295,338,294,293,292,291,290,289,288,287,286,285
284,283,282,337,281,336,280,279,278,277,276,275,274,273,272,271,270,242,241,240
239,238,260,237,259,236,235,234,233,232,231,230,229,228,227,258,226,225,224,223
222,221,220,219,218,217,216,257,256,215,214,213,212,211,210,209,208,207,206,205
204,203,202,255,201,200,199,198,197,196,195,254,194,193,192,191,190,189,188,187
186,185,184,253,183,182,181,180,179,178,177,176,175,174,252,173,172,171,170,169
168,167,166,165,164,110,163,162,161,151,150,149,109,148,147,146,145,144,143,142
141,140,108,139,138,137,136,135,106,134,133,132,131,130,129,107,128,127,126,125
124,123,122,22,121,120,96,95,94,21,20,93,92,91,90,89,88,87,86,85
84,83,19,82,81,18,80,79,78,17,77,76,75,16,74,73,72,71,70,69
68,15,67,14,66,65,64,13,63,12,62,61,60,11,59,10,58,57,56,55
54,9,53,52,51,8,50,7,49,48,6,47,46,45,44,42,5,41,43,40
39,38,37,4,36,3,35,34,2,1,33,32,0,1719,1683,1718,1681,1682,1717,1716
1715,1680,1713,1714,1678,1679,1712,1711,1677,1710,1676,1709,1675,1708,1674,1707,1706,1705,1673,1672
1704,1703,1702,1671,1701,1670,1700,1699,1698,1669,1697,1668,1696,1695,1694,1693,1658,1615,1614,1657
1613,1612,1611,1656,1655,1610,1609,1608,1653,1607,1606,1605,1654,1604,1603,1652,1602,1601,1600,1599
1598,1597,1596,1595,1594,1651,1593,1592,1650,1591,1590,1589,1588,1587,1586,1585,1649,1584,1583,1582
1581,1580,1579,1578,1648,1577,1576,1575,1574,1647,1573,1572,1571,1570,1569,1568,1567,1566,1646,1565
1564,1563,1562,1645,1561,1560,1559,1558,1557,1643,1556,1644,1555,1554,1553,1552,1551,1550,1549,1548
1547,1546,1545,1642,1544,1641,1543,1542,1541,1540,1539,1538,1537,1536,1535,1534,1533,1532,1640,1531
1530,1529,1639,1528,1527,1526,1525,1638,1524,1523,1637,1522,1521,1520,1519,1518,1517,1516,1515,1514
1513,1512,1511,1636,1510,1509,1508,1507,1635,1506,1505,1504,1503,1502,1634,1501,1500,1499,1498,1497
1496,1495,1633,1494,1493,1632,1492,1491,1490,1489,1488,1487,1486,1485,1484,1483,1482,1481,1480,1479
1478,1631,1476,1477,1475,1630,1474,1473,1472,1471,1470,1469,1468,1467,1466,1465,1464,1629,1463,1462
1461,1460,1459,1628,1458,1457,1456,1455,1454,1453,1452,1451,1627,1450,1626,1449,1448,1447,1446,1445
1444,1443,1625,1441,1439,1159,1440,1442,1438,1437,1436,1160,1426,1425,1424,1423,1422,1421,1420,1419
1418,1158,1417,1416,1415,1414,1413,1156,1157,1412,1411,1410,1409,1155,1408,1407,1406,1405,1404,1403
1402,1401,1400,1154,1153,1399,1398,1396,1152,1397,1393,1395,1394,1151,1392,1391,1390,1389,1388,1386
1387,1150,1385,1384,1149,1383,1382,1148,1381,1380,1147,1379,1378,1377,1376,1375,1374,1373,1372,1371
1370,1146,1369,1368,1145,1367,1366,1365,1364,1144,1363,1362,1361,1360,1359,1358,1357,1356,1355,1354
1353,1352,1143,1351,1142,1350,1349,1348,1347,1346,1345,1344,1343,1342,1141,1341,1340,1339,1338,1337
1336,1140,1335,1334,1139,1333,1332,1331,1330
