1333,1139,1332,1331,1330,1329,1328,1327,1138,1326,1325,1324,1137,1323,1322,1321,1320,1319,1136,1318
1317,1316,1315,1314,1135,1313,1312,1311,1310,1309,1308,1307,1306,1305,1134,1304,1303,1302,1301,1300
1299,1298,1133,1297,1296,1295,1294,1293,1132,1292,1291,1290,1289,1288,1287,1286,1131,1285,1284,1283
1282,1281,1280,1279,1278,1277,1276,1130,1275,1274,1273,1272,1271,1129,1270,1269,1268,1267,1266,1265
1264,1263,1262,1128,1261,1260,1259,1258,1257,1256,1255,1254,1127,1253,1252,1251,1126,1250,1249,1248
1247,1246,1245,1244,1243,1125,1242,1241,1240,1239,1124,1238,1237,1236,1235,1234,1233,1123,1232,1231
1230,1229,1122,1228,1227,1226,1225,1121,1224,1223,1222,1221,1220,1120,1219,1218,1217,1216,1119,1215
1214,1118,1213,1212,1211,1210,1209,1208,1117,1207,1206,1205,1204,1116,1203,1202,1201,1200,1199,1115
1198,1197,1196,1195,1114,1194,1193,1192,1113,1191,1190,1189,1188,1187,1186,1112,1185,1184,1183,1182
1181,1111,1180,1179,1178,1177,1176,1175,1174,1173,1110,1172,1171,1170,1100,1045,1044,1043,1042,1099
1041,1040,1039,1038,1037,1036,1035,1034,1033,1032,1031,1098,1030,1029,1028,1027,1026,1025,1024,1023
1022,1097,1021,1020,1019,1018,1017,1096,1016,1015,1014,1013,1012,1011,1010,1009,1008,1007,1006,1005
1095,1004,1003,1002,1001,1000,999,998,997,1094,996,995,994,993,992,991,990,1093,989,988
987,986,985,1092,984,983,982,981,980,979,978,977,976,975,974,973,1091,972,971,970
969,968,967,966,965,964,1090,963,962,961,960,959,958,957,956,955,954,953,952,951
950,1089,949,948,947,946,945,944,943,942,941,1088,940,939,938,937,936,935,934,933
932,931,930,1087,929,928,927,926,925,924,923,922,921,1086,920,919,918,917,916,915
914,913,912,911,910,909,908,907,1085,906,905,904,903,902,901,900,899,898,897,896
895,894,893,1084,892,891,890,889,888,887,1083,886,885,884,883,882,881,880,879,878
877,876,875,874,873,872,871,870,869,868,867,866,865,1082,864,863,862,861,860,859
858,1081,857,856,855,854,853,852,851,850,849,848,847,846,845,1080,844,843,842,841
840,839,838,837,836,835,834,1079,833,832,831,830,829,828,827,826,825,824,823,822
821,1078,820,819,818,817,816,815,814,813,812,811,810,809,808,807,806,1077,805,804
803,802,801,800,799,798,797,796,1076,795,794,793,792,791,790,789,788,787,786,785
784,783,782,781,780,779,778,777,1075,776,775,774,773,772,771,770,769,1074,768,767
766,765,764,763,762,761,760,759,758,757,756,1073,755,754,753,752,751,750,1072,749
748,747,746,745,744,743,742,741,740,1071,739,738,737,736,735,734,733,732,731,1070
730,729,728,727,726,725,724,1069,723,722,721,720,719,718,717,716,1068,715,714,713
712,711,710,709,708,1067,707,706,705,704,703,1066,702,701,700,699,698,697,696,695
1065,694,693,692,691,690,689,688,1064,687,686,685,684,683,682,1063,681,680,679,678
677,676,675,674,673,1062,672,671,670,669,668,667,1061,666,665,664,663,662,661,660
659,658,1060,657,656,655,654,653,652,1059,651,650,649,648,647,1058,646,645,644,643
642,1057,641,640,639,638,637,636,1056,635,634,633,632,1055,631,621,596,620,595,619
594,618,617,616,593,615,592,614,613,612,611,591,610,609,608,590,607,606,580,549
548,547,546,579,545,544,543,542,541,540,539,578,538,537,536,535,534,533,532,531
530,577,529,528,527,526,525,524,523,522,521,520,519,576,518,517,516,515,514,513
512,511,510,509,508,507,506,575,505,504,503,502,501,500,499,574,498,497,496,495
494,493,492,491,490,489,488,487,486,485,484,483,482,573,481,480,479,478,477,476
475,474,473,472,572,471,470,469,468,467,466,465,464,463,462,461,460,459,571,458
457,456,455,454,453,452,451,570,450,449,448,447,446,445,444,443,442,569,441,440
439,438,437,436,435,568,434,433,432,431,430,429,567,428,427,426,425,424,423,422
421,420,566,419,418,417,416,415,414,413,412,565,411,410,409,408,407,406,405,404
403,564,402,401,400,399,398,397,396,395,394,563,393,392,391,390,389,388,387,386
385,562,384,383,382,381,380,379,378,377,376,375,374,373,561,372,371,370,369,368
367,560,366,365,364,363,362,361,360,559,359,358,357,356,355,354,353,326,325,324
323,322,321,343,320,319,318,317,316,315,342,314,313,312,311,310,309,308,307,306
341,305,304,303,302,340,301,300,299,298,297,296,295,294,339,293,292,291,290,338
289,288,287,286,285,284,283,282,337,281,280,279,278,277,276,336,275,274,273,272
271,270,242,241,240,239,260,238,237,236,235,234,233,259,232,231,230,229,228,227
226,225,258,224,223,222,221,220,219,218,217,216,257,215,214,213,212,211,210,256
209,208,207,206,205,204,203,202,201,255,200,199,198,197,196,195,194,193,192,191
190,254,189,188,187,186,185,184,183,182,253,181,180,179,178,177,176,175,174,173
172,171,170,169,252,168,167,166,165,164,163,162,161,151,150,149,148,110,147,146
145,144,143,142,109,141,140,139,138,137,136,108,135,134,133,132,131,130,129,107
128,127,126,125,124,106,123,122,121,120,96,95,94,22,93,92,91,90,21,89
88,87,86,20,85,84,83,19,82,81,80,79,18,78,77,76,75,17,74,73
72,71,16,70,69,68,15,67,66,14,65,64,63,13,62,12,61,60,59,11
58,10,57,56,55,54,9,53,52,51,50,8,49,48,7,47,46,45,44,6
43,42,41,5,40,39,38,37,36,4,35,3,2,34,1,33,0,32,1719,1718
1683,1717,1682,1716,1681,1715,1680,1714,1679,1713,1712,1678,1711,1710,1677,1709,1676,1708,1675,1707
1674,1706,1705,1673,1704,1672,1703,1702,1701,1671,1700,1699,1670,1698,1697,1696,1669,1695,1668,1694
1693,1615,1658,1614,1657,1613,1612,1611,1656,1610,1609,1608,1655,1607,1606,1605,1604,1603,1654,1602
1601,1600,1653,1599,1652,1598,1597,1596,1595,1594,1593,1592,1651,1591,1590,1589,1588,1650,1587,1586
1585,1584,1583,1582,1581,1649,1580,1579,1578,1577,1576,1648,1575,1574,1573,1572,1571,1570,1569,1647
1568,1567,1566,1565,1564,1563,1646,1562,1561,1645,1560,1559,1558,1557,1556,1555,1554,1644,1553,1552
1551,1643,1550,1549,1548,1547,1546,1545,1544,1543,1642,1542,1541,1540,1539,1538,1641,1537,1536,1535
1534,1533,1532,1640,1531,1530,1529,1528,1639,1527,1526,1525,1524,1523,1522,1638,1521,1520,1519,1518
1517,1516,1637,1515,1514,1513,1512,1511,1636,1510,1509,1508,1507,1506,1505,1635,1504,1503,1502,1501
1500,1499,1634,1498,1497,1496,1495,1494,1633,1493,1492,1491,1490,1489,1632,1488,1487,1486,1485,1484
1483,1482,1481,1480,1479,1478,1477,1631,1476,1475,1474,1473,1630,1472,1471,1470,1469,1468,1467,1466
1465,1464,1463,1629,1462,1461,1460,1459,1458,1457,1628,1456,1455,1454,1453,1452,1627,1451,1450,1449
1448,1447,1446,1445,1626,1444,1443,1442,1441,1440,1625,1439,1438,1437,1436,1426,1425,1160,1424,1423
1422,1421,1159,1420,1419,1418,1417,1158,1416,1415,1414,1413,1412,1157,1411,1410,1409,1408,1156,1407
1406,1405,1404,1155,1403,1402,1401,1400,1154,1399,1398,1397,1153,1396,1395,1394,1152,1393,1392,1391
1390,1151,1389,1388,1387,1386,1150,1385,1384,1149,1383,1382,1381,1148,1380,1379,1378,1377,1376,1147
1375,1374,1373,1372,1371,1370,1369,1146,1368,1367,1366,1365,1364,1145,1363,1362,1361,1360,1359,1144
1358,1357,1356,1355,1354,1353,1352,1143,1351,1350,1349,1348,1347,1142,1346,1345,1344,1343,1141,1342
1341,1340,1339,1338,1337,1336,1140,1335,1334
